{
    "802018": "$B_d^0$$\\rightarrow$$D^-$ ($\\rightarrow$$K^+$$\\pi^-$$\\pi^-$)$\\pi^+$$\\pi^+$$\\pi^-$",
    "802019": "$\\overline{B}_d^0$$\\rightarrow$$D^+$ ($\\rightarrow$$K^-$$\\pi^+$$\\pi^+$)$\\pi^-$$\\pi^+$$\\pi^-$",
    "802020": "$B_d^0$$\\rightarrow$$D^-$ ($\\rightarrow$$K^+$$\\pi^-$$\\pi^-$)$\\pi^+$",
    "802021": "$\\overline{B}_d^0$$\\rightarrow$$D^+$ ($\\rightarrow$$K^-$$\\pi^+$$\\pi^+$)$\\pi^-$",
    "802022": "$B_d^0$$\\rightarrow$$K^+$$\\pi^-$",
    "802023": "$\\overline{B}_d^0$$\\rightarrow$$K^-$$\\pi^+$",
    "802024": "$B_d^0$$\\rightarrow$$\\overline{D}^{*0}$ ($\\rightarrow$$\\overline{D}^0$ ($\\rightarrow$$K^+$$\\pi^-$)$\\gamma$)$\\pi^+$$\\pi^-$",
    "802025": "$\\overline{B}_d^0$$\\rightarrow$$D^{*0}$ ($\\rightarrow$$D^0$ ($\\rightarrow$$K^-$$\\pi^+$)$\\gamma$)$\\pi^+$$\\pi^-$",
    "802026": "$B_d^0$$\\rightarrow$$\\rho^+$ ($\\rightarrow$$\\pi^0$ ($\\rightarrow$$\\gamma$$\\gamma$)$\\pi^+$)$D^-$ ($\\rightarrow$$K^+$$\\pi^-$$\\pi^-$ )",
    "802027": "$\\overline{B}_d^0$$\\rightarrow$$\\rho^-$ ($\\rightarrow$$\\pi^0$ ($\\rightarrow$$\\gamma$$\\gamma$)$\\pi^-$)$D^+$ ($\\rightarrow$$K^-$$\\pi^+$$\\pi^+$ )",
    "802028": "$B^+$$\\rightarrow$$\\overline{D}^0$ ($\\rightarrow$$K^+$$\\pi^-$)$\\pi^+$$\\pi^+$$\\pi^-$",
    "802029": "$B^-$$\\rightarrow$$D^0$ ($\\rightarrow$$K^-$$\\pi^+$)$\\pi^-$$\\pi^+$$\\pi^-$",
    "802030": "$B^+$$\\rightarrow$$\\overline{D}^0$ ($\\rightarrow$$K^+$$\\pi^-$)$\\pi^+$",
    "802031": "$B^-$$\\rightarrow$$D^0$ ($\\rightarrow$$K^-$$\\pi^+$)$\\pi^-$",
    "802032": "$B^+$$\\rightarrow$$\\overline{D}^{*0}$ ($\\rightarrow$$\\overline{D}^0$ ($\\rightarrow$$K^+$$\\pi^-$)$\\gamma$)$a_1^+$ ($\\rightarrow$$\\rho^0$ ($\\rightarrow$$\\pi^+$$\\pi^-$)$\\pi^+$ )",
    "802033": "$B^-$$\\rightarrow$$D^{*0}$ ($\\rightarrow$$D^0$ ($\\rightarrow$$K^-$$\\pi^+$)$\\gamma$)$a_1^-$ ($\\rightarrow$$\\rho^0$ ($\\rightarrow$$\\pi^+$$\\pi^-$)$\\pi^-$ )",
    "802034": "$B^+$$\\rightarrow$$\\overline{D}^{*0}$ ($\\rightarrow$$\\overline{D}^0$ ($\\rightarrow$$K^+$$\\pi^-$)$\\gamma$)$\\pi^+$",
    "802035": "$B^-$$\\rightarrow$$D^{*0}$ ($\\rightarrow$$D^0$ ($\\rightarrow$$K^-$$\\pi^+$)$\\gamma$)$\\pi^-$",
    "802036": "$B_d^0$$\\rightarrow$$D^-$ ($\\rightarrow$$K^+$$\\pi^-$$\\pi^-$)$\\mu^+$$\\nu_\\mu$",
    "802037": "$\\overline{B}_d^0$$\\rightarrow$$D^+$ ($\\rightarrow$$K^-$$\\pi^+$$\\pi^+$)$\\mu^-$$\\overline{\\nu}_\\mu$",
    "802038": "$B_d^0$$\\rightarrow$$D^{*-}$ ($\\rightarrow$$D^-$ ($\\rightarrow$$K^+$$\\pi^-$$\\pi^-$)$\\gamma$)$\\mu^+$$\\nu_\\mu$",
    "802039": "$\\overline{B}_d^0$$\\rightarrow$$D^{*+}$ ($\\rightarrow$$D^+$ ($\\rightarrow$$K^-$$\\pi^+$$\\pi^+$)$\\gamma$)$\\mu^-$$\\overline{\\nu}_\\mu$",
    "802040": "$B^+$$\\rightarrow$$\\overline{D}^0$ ($\\rightarrow$$a_1^-$ ($\\rightarrow$$\\rho^0$ ($\\rightarrow$$\\pi^+$$\\pi^-$)$\\pi^-$)$K^+$)$\\mu^+$$\\nu_\\mu$",
    "802041": "$B^-$$\\rightarrow$$D^0$ ($\\rightarrow$$a_1^+$ ($\\rightarrow$$\\rho^0$ ($\\rightarrow$$\\pi^+$$\\pi^-$)$\\pi^+$)$K^-$)$\\mu^-$$\\overline{\\nu}_\\mu$",
    "802042": "$B^+$$\\rightarrow$$\\overline{D}^0$ ($\\rightarrow$$K^+$$\\pi^-$)$\\mu^+$$\\nu_\\mu$",
    "802043": "$B^-$$\\rightarrow$$D^0$ ($\\rightarrow$$K^-$$\\pi^+$)$\\mu^-$$\\overline{\\nu}_\\mu$"
}