,best-N,B_chi2,Lxy_significance,Lxy_significance_over_B_chi2
0,1,0.852836176120587,0.8960729869099564,0.885561285204284
1,2,0.9365331217770726,0.9633082110273701,0.9589448631495439
2,3,0.9637048790162633,0.9823482744942483,0.9799682665608885
3,4,0.9765965886552955,0.9896866322887743,0.9880999603332011
4,5,0.9817532725109084,0.9930583101943673,0.9912733042443475
5,6,0.9867116223720745,0.9956366521221738,0.9942483141610472
6,7,0.9912733042443475,0.9978183260610869,0.996628322094407
7,8,0.9934549781832606,0.9982149940499802,0.9980166600555335
8,9,0.9962316541055137,0.9982149940499802,0.9984133280444268
9,10,0.9978183260610869,0.9988099960333201,0.99940499801666
10,15,0.99940499801666,1.0,1.0
11,20,0.9998016660055533,1.0,1.0
12,25,0.9998016660055533,1.0,1.0
13,30,1.0,1.0,1.0
